<svg width="360" height="257" viewBox="0 0 360 257" fill="none" xmlns="http://www.w3.org/2000/svg">
    <defs>
        <linearGradient id="paint0_linear" x1="180.25" y1="95.9303" x2="180.25" y2="192.5">
            <stop stop-color="#0081CA"/>
            <stop offset="1" stop-color="#1EADFF" stop-opacity="0"/>
        </linearGradient>
        <linearGradient id="paint1_linear" x1="180.25" y1="83.1124" x2="180.25" y2="179.682">
            <stop stop-color="#0081CA"/>
            <stop offset="1" stop-color="#1EADFF" stop-opacity="0"/>
        </linearGradient>
    </defs>
    <path d="M0 256.964C0 256.964 171.542 257 360 257C360 61.3656 360 0.126563 360 0.126563L0 0L0 256.964Z" fill="#007BC1"/>
    <path d="M114 151.5C71.6 134.3 20.3333 144.333 0 151.5V192.5H360.5V97.5C321.5 89 276 114.5 250.5 134C231.402 148.604 167 173 114 151.5Z" fill="url(#paint0_linear)" fill-opacity="0.5"/>
    <path d="M124.5 162.5C82.1 145.3 46.5 127.318 0 141.5V179.682H360.5V121.182C336 86.5 290.5 82.5 265 102C245.902 116.604 177.5 184 124.5 162.5Z" fill="url(#paint1_linear)" fill-opacity="0.5"/>
</svg>
