<svg width="40" height="40" viewBox="0 0 40 40" fill="none" xmlns="http://www.w3.org/2000/svg">
    <path d="M33 34.5H24V36H36V29.5L34.5 27V33C34.5 34.2 33.5 34.5 33 34.5Z" fill="#FF9811"/>
    <path d="M28 25C28 25 31.5 25 31.5 20L33 21V24.5L31.5 26H29.5L28 25Z" fill="#FF9811"/>
    <path d="M8 25C8 25 11.5 25 11.5 20L13 21V24.5L11.5 26H9.5L8 25Z" fill="#FF9811"/>
    <path d="M13 34.5H4V36H16V29.5L14.5 27V33C14.5 34.2 13.5 34.5 13 34.5Z" fill="#FF9811"/>
    <circle cx="20.5" cy="9.5" r="3.5" fill="#FF9811"/>
    <path d="M26.5742 3H13.3594C9.62449 3 6.58594 6.03855 6.58594 9.77344C6.58594 13.2843 9.27101 16.1798 12.6953 16.5146V18.8711C12.6953 19.1396 12.8571 19.3818 13.1052 19.4846C13.3534 19.5874 13.639 19.5306 13.8289 19.3407L16.6227 16.5469H23.3773L26.1711 19.3407C26.2981 19.4677 26.4679 19.5352 26.6408 19.5352C26.7263 19.5352 26.8126 19.5186 26.8948 19.4846C27.1429 19.3818 27.3047 19.1396 27.3047 18.871V16.5076C28.8498 16.3427 30.2804 15.6568 31.3878 14.5385C32.6517 13.2622 33.3477 11.5699 33.3477 9.77344C33.3477 6.03855 30.3091 3 26.5742 3ZM26.6336 15.218C26.2696 15.2218 25.9766 15.518 25.9766 15.8819V17.2679L24.1219 15.4133C23.9974 15.2887 23.8285 15.2188 23.6523 15.2188H16.3477C16.1715 15.2188 16.0026 15.2887 15.8781 15.4133L14.0234 17.2679V15.8828C14.0234 15.5161 13.7261 15.2188 13.3594 15.2188C10.3568 15.2188 7.91406 12.776 7.91406 9.77344C7.91406 6.77088 10.3568 4.32812 13.3594 4.32812H26.5742C29.5768 4.32812 32.0195 6.77088 32.0195 9.77344C32.0195 12.7439 29.6034 15.1863 26.6336 15.218Z" fill="#007BC1"/>
    <path d="M24.5203 6.58122C24.261 6.32184 23.8405 6.32184 23.5812 6.58122L23.1017 7.06074C22.3465 6.20071 21.2402 5.65625 20.0084 5.65625C17.7382 5.65625 15.8912 7.50321 15.8912 9.77344C15.8912 12.0437 17.7382 13.8906 20.0084 13.8906C22.2787 13.8906 24.1256 12.0437 24.1256 9.77344C24.1256 9.22406 24.0166 8.69985 23.8205 8.22026L24.5203 7.52041C24.7797 7.26109 24.7797 6.84061 24.5203 6.58122ZM20.0084 12.5625C18.4705 12.5625 17.2194 11.3113 17.2194 9.77344C17.2194 8.23554 18.4705 6.98438 20.0084 6.98438C20.874 6.98438 21.6489 7.38082 22.1608 8.00165L20.5644 9.59799L19.8719 8.90544C19.6126 8.64613 19.1921 8.64613 18.9327 8.90544C18.6734 9.16476 18.6734 9.58524 18.9327 9.84462L20.0948 11.0067C20.2245 11.1364 20.3944 11.2012 20.5644 11.2012C20.7343 11.2012 20.9043 11.1364 21.0339 11.0067L22.754 9.28668C22.7821 9.44486 22.7975 9.60736 22.7975 9.77344C22.7975 11.3113 21.5463 12.5625 20.0084 12.5625Z" fill="#007BC1"/>
    <path d="M12.4264 25.4494C12.9103 24.8582 13.2013 24.1032 13.2013 23.2815V22.1049C13.2013 20.2148 11.6636 18.6771 9.77344 18.6771C7.88332 18.6771 6.34561 20.2148 6.34561 22.1049V23.2815C6.34561 24.1032 6.63654 24.8582 7.12044 25.4494C4.7858 25.8382 3 27.8713 3 30.3146V36.3359C3 36.7027 3.2973 37 3.66406 37H15.8828C16.2496 37 16.5469 36.7027 16.5469 36.3359V30.3146C16.5469 27.8713 14.7611 25.8382 12.4264 25.4494ZM7.67374 22.1049C7.67374 20.9471 8.61564 20.0052 9.77344 20.0052C10.9312 20.0052 11.8731 20.9471 11.8731 22.1049V23.2815C11.8731 24.4393 10.9312 25.3812 9.77344 25.3812C8.61564 25.3812 7.67374 24.4393 7.67374 23.2815V22.1049ZM15.2188 35.6719H4.32812V30.3146C4.32812 28.3267 5.94545 26.7094 7.93339 26.7094H9.10938V28.385C9.10938 28.7517 9.40668 29.049 9.77344 29.049C10.1402 29.049 10.4375 28.7517 10.4375 28.385V26.7094H11.6135C13.6014 26.7094 15.2188 28.3267 15.2188 30.3146V35.6719Z" fill="#007BC1"/>
    <path d="M32.8796 25.4494C33.3635 24.8582 33.6544 24.1032 33.6544 23.2815V22.1049C33.6544 20.2148 32.1167 18.6771 30.2266 18.6771C28.3364 18.6771 26.7987 20.2148 26.7987 22.1049V23.2815C26.7987 24.1032 27.0897 24.8582 27.5736 25.4494C25.2389 25.8382 23.4531 27.8713 23.4531 30.3146V36.3359C23.4531 36.7027 23.7504 37 24.1172 37H36.3359C36.7027 37 37 36.7027 37 36.3359V30.3146C37 27.8713 35.2142 25.8382 32.8796 25.4494ZM28.1269 22.1049C28.1269 20.9471 29.0688 20.0052 30.2266 20.0052C31.3844 20.0052 32.3263 20.9471 32.3263 22.1049V23.2815C32.3263 24.4393 31.3844 25.3812 30.2266 25.3812C29.0688 25.3812 28.1269 24.4393 28.1269 23.2815V22.1049ZM35.6719 35.6719H24.7812V30.3146C24.7812 28.3267 26.3986 26.7094 28.3865 26.7094H29.5625V28.385C29.5625 28.7517 29.8598 29.049 30.2266 29.049C30.5933 29.049 30.8906 28.7517 30.8906 28.385V26.7094H32.0666C34.0546 26.7094 35.6719 28.3267 35.6719 30.3146V35.6719Z" fill="#007BC1"/>
    <path d="M30.6961 30.3222C30.5725 30.1987 30.4012 30.1283 30.2266 30.1283C30.0519 30.1283 29.8806 30.1987 29.7571 30.3222C29.6336 30.4457 29.5625 30.617 29.5625 30.7917C29.5625 30.967 29.6336 31.1377 29.7571 31.2618C29.8806 31.3854 30.0519 31.4557 30.2266 31.4557C30.4012 31.4557 30.5725 31.3854 30.6961 31.2618C30.8196 31.1377 30.8906 30.967 30.8906 30.7917C30.8906 30.617 30.8196 30.4464 30.6961 30.3222Z" fill="#007BC1"/>
    <path d="M10.2429 30.3222C10.1194 30.1987 9.94809 30.1283 9.77344 30.1283C9.59879 30.1283 9.42746 30.1987 9.30395 30.3222C9.18043 30.4457 9.10938 30.617 9.10938 30.7917C9.10938 30.967 9.18043 31.1377 9.30395 31.2618C9.42746 31.3854 9.59879 31.4557 9.77344 31.4557C9.94809 31.4557 10.1194 31.3854 10.2429 31.2618C10.3664 31.1377 10.4375 30.967 10.4375 30.7917C10.4375 30.617 10.3664 30.4464 10.2429 30.3222Z" fill="#007BC1"/>
</svg>
