<svg width="13" height="8" viewBox="0 0 13 8" fill="none" xmlns="http://www.w3.org/2000/svg">
    <path d="M12.5 1.50004L6.49998 7.50004L5.5 6.5L6.205 5.795L6.49998 6.08504L11.795 0.795044L12.5 1.50004Z" fill="#007BC1"/>
    <path d="M8.75 1.50004L2.75 7.50004L0 4.75004L0.705 4.04504L2.75 6.08504L8.045 0.795044L8.75 1.50004Z" fill="#007BC1"/>
</svg>
