<svg xmlns="http://www.w3.org/2000/svg" width="30" height="30" viewBox="0 0 30 30">
    <g id="Group_414" transform="translate(.286)">
        <g id="Ellipse_105" class="cls-1" fill="none" stroke="#007bc1"
            transform="translate(-.286)">
            <circle cx="15" cy="15" r="15" class="cls-3" stroke="none"/>
            <circle cx="15" cy="15" r="14.5" class="cls-4" fill="none"/>
        </g>
        <path id="Icon_ionic-ios-pin" d="M12.2 3.375a4.183 4.183 0 0 0-4.325 4.018c0 3.126 4.328 8.484 4.328 8.484s4.328-5.358 4.328-8.484A4.183 4.183 0 0 0 12.2 3.375zm0 5.737A1.409 1.409 0 1 1 13.612 7.7 1.41 1.41 0 0 1 12.2 9.112z" class="cls-2" fill="#007bc1" transform="translate(2.458 5.523)"/>
    </g>
</svg>
